sidev6rgud/labor03/ALL0026/F0026MTH.CSV

Record Length,1.024000e+03,,          0.00000, -17.78970,
Sample Interval,2.466067e+00,,          2.46607, -20.98970,
Trigger Point,0.000000000000e+00,,          4.93213, -46.98970,
,,,          7.39820, -46.98970,
,,,          9.86427, -46.98970,
,,,         12.33033, -46.98970,
Source,MATH,,         14.79640, -46.98970,
Vertical Units,dB,,         17.26247, -46.98970,
Vertical Scale,1.000000e+01,,         19.72854, -43.38970,
Vertical Offset,0.000000e+00,,         22.19460, -46.98970,
Horizontal Units,Hz,,         24.66067, -43.38970,
Horizontal Scale,2.525253e+02,,         27.12674, -46.98970,
Pt Fmt,Y,,         29.59280, -45.78970,
Yzero,-6.989700e+00,,         32.05887, -45.78970,
Probe Atten,1.000000e+00,,         34.52494, -46.98970,
Model Number,TDS2012B,,         36.99100, -45.78970,
Serial Number,C056597,,         39.45707, -43.78970,
Firmware Version,FV:v22.01,,         41.92314, -43.38970,
,,,44.38921, -43.78970,
,,,46.85528, -45.78970,
,,,49.32135, -46.98970,
,,,51.78742, -46.98970,
,,,54.25349, -46.98970,
,,,56.71956, -45.78970,
,,,59.18563, -46.98970,
,,,61.65170, -46.98970,
,,,64.11777, -43.38970,
,,,66.58384, -40.58970,
,,,69.04991, -46.98970,
,,,71.51598, -43.78970,
,,,73.98205, -46.98970,
,,,76.44812, -46.98970,
,,,78.91419, -46.98970,
,,,81.38026, -43.78970,
,,,83.84633, -46.98970,
,,,86.31240, -46.98970,
,,,88.77847, -45.78970,
,,,91.24454, -46.98970,
,,,93.71061, -45.78970,
,,,96.17668, -46.98970,
,,,98.64275, -46.98970,
,,,101.10882, -45.78970,
,,,103.57489, -46.98970,
,,,106.04096, -46.98970,
,,,108.50703, -46.98970,
,,,110.97310, -46.98970,
,,,113.43917, -46.98970,
,,,115.90524, -46.98970,
,,,118.37131, -46.98970,
,,,120.83738, -46.98970,
,,,123.30345, -46.98970,
,,,125.76952, -46.98970,
,,,128.23559, -45.78970,
,,,130.70166, -45.78970,
,,,133.16773, -46.98970,
,,,135.63380, -46.98970,
,,,138.09987, -46.98970,
,,,140.56594, -46.98970,
,,,143.03201, -46.98970,
,,,145.49808, -46.98970,
,,,147.96415, -46.98970,
,,,150.43022, -46.98970,
,,,152.89629, -46.98970,
,,,155.36236, -46.98970,
,,,157.82843, -42.98970,
,,,160.29450, -46.98970,
,,,162.76057, -46.98970,
,,,165.22664, -45.78970,
,,,167.69271, -42.98970,
,,,170.15878, -46.98970,
,,,172.62485, -43.38970,
,,,175.09092, -43.38970,
,,,177.55699, -46.98970,
,,,180.02306, -46.98970,
,,,182.48913, -45.78970,
,,,184.95520, -46.98970,
,,,187.42127, -46.98970,
,,,189.88734, -46.98970,
,,,192.35341, -46.98970,
,,,194.81948, -46.98970,
,,,197.28555, -45.78970,
,,,199.75162, -46.98970,
,,,202.21769, -46.98970,
,,,204.68376, -46.98970,
,,,207.14983, -46.98970,
,,,209.61590, -46.98970,
,,,212.08197, -45.78970,
,,,214.54804, -42.98970,
,,,217.01411, -41.78970,
,,,219.48018, -43.78970,
,,,221.94625, -42.98970,
,,,224.41232, -45.78970,
,,,226.87839, -46.98970,
,,,229.34446, -42.98970,
,,,231.81053, -46.98970,
,,,234.27660, -46.98970,
,,,236.74267, -46.98970,
,,,239.20874, -46.98970,
,,,241.67481, -46.98970,
,,,244.14088, -46.98970,
,,,246.60695, -46.98970,
,,,249.07302, -46.98970,
,,,251.53909, -46.98970,
,,,254.00516, -45.78970,
,,,256.47123, -46.98970,
,,,258.93730, -43.78970,
,,,261.40337, -43.38970,
,,,263.86944, -46.98970,
,,,266.33551, -42.98970,
,,,268.80158, -46.98970,
,,,271.26765, -43.38970,
,,,273.73372, -46.98970,
,,,276.19979, -46.98970,
,,,278.66586, -46.98970,
,,,281.13193, -46.98970,
,,,283.59800, -46.98970,
,,,286.06407, -46.98970,
,,,288.53014, -46.98970,
,,,290.99621, -46.98970,
,,,293.46228, -46.98970,
,,,295.92835, -46.98970,
,,,298.39442, -46.98970,
,,,300.86049, -46.98970,
,,,303.32656, -46.98970,
,,,305.79263, -46.98970,
,,,308.25870, -46.98970,
,,,310.72477, -46.98970,
,,,313.19084, -45.78970,
,,,315.65691, -45.78970,
,,,318.12298, -46.98970,
,,,320.58905, -46.98970,
,,,323.05512, -45.78970,
,,,325.52119, -42.98970,
,,,327.98726, -46.98970,
,,,330.45333, -46.98970,
,,,332.91940, -46.98970,
,,,335.38547, -46.98970,
,,,337.85154, -46.98970,
,,,340.31761, -46.98970,
,,,342.78368, -46.98970,
,,,345.24975, -46.98970,
,,,347.71582, -46.98970,
,,,350.18189, -46.98970,
,,,352.64796, -43.78970,
,,,355.11403, -42.98970,
,,,357.58010, -45.78970,
,,,360.04617, -46.98970,
,,,362.51224, -46.98970,
,,,364.97831, -43.78970,
,,,367.44438, -43.38970,
,,,369.91045, -43.78970,
,,,372.37652, -46.98970,
,,,374.84259, -46.98970,
,,,377.30866, -43.38970,
,,,379.77473, -43.78970,
,,,382.24080, -46.98970,
,,,384.70687, -42.98970,
,,,387.17294, -45.78970,
,,,389.63901, -46.98970,
,,,392.10508, -46.98970,
,,,394.57115, -45.78970,
,,,397.03722, -39.78970,
,,,399.50329, -46.98970,
,,,401.96936, -46.98970,
,,,404.43543, -45.78970,
,,,406.90150, -46.98970,
,,,409.36757, -46.98970,
,,,411.83364, -46.98970,
,,,414.29971, -46.98970,
,,,416.76578, -46.98970,
,,,419.23185, -46.98970,
,,,421.69792, -45.78970,
,,,424.16399, -46.98970,
,,,426.63006, -46.98970,
,,,429.09613, -46.98970,
,,,431.56220, -46.98970,
,,,434.02827, -45.78970,
,,,436.49434, -45.78970,
,,,438.96041, -46.98970,
,,,441.42648, -46.98970,
,,,443.89255, -46.98970,
,,,446.35862, -46.98970,
,,,448.82469, -46.98970,
,,,451.29076, -46.98970,
,,,453.75683, -46.98970,
,,,456.22290, -46.98970,
,,,458.68897, -46.98970,
,,,461.15504, -46.98970,
,,,463.62111, -45.78970,
,,,466.08718, -46.98970,
,,,468.55325, -46.98970,
,,,471.01932, -45.78970,
,,,473.48539, -45.78970,
,,,475.95146, -46.98970,
,,,478.41753, -45.78970,
,,,480.88360, -46.98970,
,,,483.34967, -46.98970,
,,,485.81574, -46.98970,
,,,488.28181, -46.98970,
,,,490.74788, -46.98970,
,,,493.21395, -46.98970,
,,,495.68002, -46.98970,
,,,498.14609, -46.98970,
,,,500.61216, -46.98970,
,,,503.07823, -46.98970,
,,,505.54430, -46.98970,
,,,508.01037, -46.98970,
,,,510.47644, -46.98970,
,,,512.94251, -46.98970,
,,,515.40858, -46.98970,
,,,517.87465, -46.98970,
,,,520.34072, -46.98970,
,,,522.80679, -46.98970,
,,,525.27286, -46.98970,
,,,527.73893, -46.98970,
,,,530.20500, -46.98970,
,,,532.67107, -46.98970,
,,,535.13714, -46.98970,
,,,537.60321, -46.98970,
,,,540.06928, -46.98970,
,,,542.53535, -46.98970,
,,,545.00142, -46.98970,
,,,547.46749, -45.78970,
,,,549.93356, -46.98970,
,,,552.39963, -46.98970,
,,,554.86570, -45.78970,
,,,557.33177, -46.98970,
,,,559.79784, -46.98970,
,,,562.26391, -46.98970,
,,,564.72998, -46.98970,
,,,567.19605, -46.98970,
,,,569.66212, -45.78970,
,,,572.12819, -43.78970,
,,,574.59426, -45.78970,
,,,577.06033, -46.98970,
,,,579.52640, -46.98970,
,,,581.99247, -46.98970,
,,,584.45854, -46.98970,
,,,586.92461, -43.38970,
,,,589.39068, -45.78970,
,,,591.85675, -46.98970,
,,,594.32282, -46.98970,
,,,596.78889, -46.98970,
,,,599.25496, -46.98970,
,,,601.72103, -45.78970,
,,,604.18710, -42.98970,
,,,606.65317, -46.98970,
,,,609.11924, -46.98970,
,,,611.58531, -46.98970,
,,,614.05138, -46.98970,
,,,616.51745, -46.98970,
,,,618.98352, -46.98970,
,,,621.44959, -43.38970,
,,,623.91566, -46.98970,
,,,626.38173, -46.98970,
,,,628.84780, -46.98970,
,,,631.31387, -46.98970,
,,,633.77994, -46.98970,
,,,636.24601, -46.98970,
,,,638.71208, -43.38970,
,,,641.17815, -46.98970,
,,,643.64422, -46.98970,
,,,646.11029, -46.98970,
,,,648.57636, -46.98970,
,,,651.04243, -46.98970,
,,,653.50850, -46.98970,
,,,655.97457, -46.98970,
,,,658.44064, -46.98970,
,,,660.90671, -45.78970,
,,,663.37278, -46.98970,
,,,665.83885, -46.98970,
,,,668.30492, -46.98970,
,,,670.77099, -45.78970,
,,,673.23706, -45.78970,
,,,675.70313, -41.78970,
,,,678.16920, -43.38970,
,,,680.63527, -46.98970,
,,,683.10134, -46.98970,
,,,685.56741, -46.98970,
,,,688.03348, -43.78970,
,,,690.49955, -40.58970,
,,,692.96562, -43.38970,
,,,695.43169, -45.78970,
,,,697.89776, -45.78970,
,,,700.36383, -43.38970,
,,,702.82990, -46.98970,
,,,705.29597, -46.98970,
,,,707.76204, -46.98970,
,,,710.22811, -46.98970,
,,,712.69418, -45.78970,
,,,715.16025, -45.78970,
,,,717.62632, -46.98970,
,,,720.09239, -46.98970,
,,,722.55846, -45.78970,
,,,725.02453, -45.78970,
,,,727.49060, -46.98970,
,,,729.95667, -46.98970,
,,,732.42274, -46.98970,
,,,734.88881, -42.98970,
,,,737.35488, -46.98970,
,,,739.82095, -46.98970,
,,,742.28702, -46.98970,
,,,744.75309, -46.98970,
,,,747.21916, -45.78970,
,,,749.68523, -42.98970,
,,,752.15130, -46.98970,
,,,754.61737, -46.98970,
,,,757.08344, -45.78970,
,,,759.54951, -46.98970,
,,,762.01558, -46.98970,
,,,764.48165, -46.98970,
,,,766.94772, -46.98970,
,,,769.41379, -45.78970,
,,,771.87986, -43.78970,
,,,774.34593, -43.38970,
,,,776.81200, -46.98970,
,,,779.27807, -45.78970,
,,,781.74414, -46.98970,
,,,784.21021, -46.98970,
,,,786.67628, -46.98970,
,,,789.14235, -46.98970,
,,,791.60842, -43.38970,
,,,794.07449, -42.98970,
,,,796.54056, -46.98970,
,,,799.00663, -43.38970,
,,,801.47270, -42.98970,
,,,803.93877, -45.78970,
,,,806.40484, -46.98970,
,,,808.87091, -46.98970,
,,,811.33698, -46.98970,
,,,813.80305, -46.98970,
,,,816.26912, -46.98970,
,,,818.73519, -46.98970,
,,,821.20126, -46.98970,
,,,823.66733, -43.78970,
,,,826.13340, -42.98970,
,,,828.59947, -46.98970,
,,,831.06554, -46.98970,
,,,833.53161, -46.98970,
,,,835.99768, -46.98970,
,,,838.46375, -46.98970,
,,,840.92982, -46.98970,
,,,843.39589, -46.98970,
,,,845.86196, -46.98970,
,,,848.32803, -46.98970,
,,,850.79410, -46.98970,
,,,853.26017, -46.98970,
,,,855.72624, -42.98970,
,,,858.19231, -46.98970,
,,,860.65838, -46.98970,
,,,863.12445, -46.98970,
,,,865.59052, -46.98970,
,,,868.05659, -46.98970,
,,,870.52266, -46.98970,
,,,872.98873, -43.78970,
,,,875.45480, -45.78970,
,,,877.92087, -46.98970,
,,,880.38694, -46.98970,
,,,882.85301, -46.98970,
,,,885.31908, -46.98970,
,,,887.78515, -46.98970,
,,,890.25122, -46.98970,
,,,892.71729, -46.98970,
,,,895.18336, -41.78970,
,,,897.64943, -42.98970,
,,,900.11550, -46.98970,
,,,902.58157, -46.98970,
,,,905.04764, -46.98970,
,,,907.51371, -46.98970,
,,,909.97978, -46.98970,
,,,912.44585, -46.98970,
,,,914.91192, -46.98970,
,,,917.37799, -46.98970,
,,,919.84406, -46.98970,
,,,922.31013, -46.98970,
,,,924.77620, -43.78970,
,,,927.24227, -39.78970,
,,,929.70834, -42.98970,
,,,932.17441, -46.98970,
,,,934.64048, -46.98970,
,,,937.10655, -43.38970,
,,,939.57262, -40.58970,
,,,942.03869, -45.78970,
,,,944.50476, -46.98970,
,,,946.97083, -43.78970,
,,,949.43690, -45.78970,
,,,951.90297, -46.98970,
,,,954.36904, -45.78970,
,,,956.83511, -46.98970,
,,,959.30118, -46.98970,
,,,961.76725, -45.78970,
,,,964.23332, -45.78970,
,,,966.69939, -46.98970,
,,,969.16546, -46.98970,
,,,971.63153, -46.98970,
,,,974.09760, -36.98970,
,,,976.56367, -18.98970,
,,,979.02974,  -8.18970,
,,,981.49581, -10.18970,
,,,983.96188, -28.18970,
,,,986.42795, -42.98970,
,,,988.89402, -45.78970,
,,,991.36009, -45.78970,
,,,993.82616, -46.98970,
,,,996.29223, -46.98970,
,,,998.75830, -46.98970,
,,,1001.22437, -46.98970,
,,,1003.69044, -46.98970,
,,,1006.15651, -45.78970,
,,,1008.62258, -46.98970,
,,,1011.08865, -46.98970,
,,,1013.55472, -46.98970,
,,,1016.02079, -46.98970,
,,,1018.48686, -46.98970,
,,,1020.95293, -46.98970,
,,,1023.41900, -46.98970,
,,,1025.88507, -46.98970,
,,,1028.35114, -46.98970,
,,,1030.81721, -46.98970,
,,,1033.28328, -46.98970,
,,,1035.74935, -46.98970,
,,,1038.21542, -46.98970,
,,,1040.68149, -46.98970,
,,,1043.14756, -46.98970,
,,,1045.61363, -46.98970,
,,,1048.07970, -46.98970,
,,,1050.54577, -46.98970,
,,,1053.01184, -43.78970,
,,,1055.47791, -45.78970,
,,,1057.94398, -43.78970,
,,,1060.41005, -46.98970,
,,,1062.87612, -45.78970,
,,,1065.34219, -46.98970,
,,,1067.80826, -45.78970,
,,,1070.27433, -45.78970,
,,,1072.74040, -46.98970,
,,,1075.20647, -46.98970,
,,,1077.67254, -46.98970,
,,,1080.13861, -45.78970,
,,,1082.60468, -46.98970,
,,,1085.07075, -46.98970,
,,,1087.53682, -46.98970,
,,,1090.00289, -45.78970,
,,,1092.46896, -46.98970,
,,,1094.93503, -43.38970,
,,,1097.40110, -46.98970,
,,,1099.86717, -45.78970,
,,,1102.33324, -41.78970,
,,,1104.79931, -46.98970,
,,,1107.26538, -46.98970,
,,,1109.73145, -46.98970,
,,,1112.19752, -46.98970,
,,,1114.66359, -46.98970,
,,,1117.12966, -46.98970,
,,,1119.59573, -46.98970,
,,,1122.06180, -46.98970,
,,,1124.52787, -46.98970,
,,,1126.99394, -46.98970,
,,,1129.46001, -46.98970,
,,,1131.92608, -46.98970,
,,,1134.39215, -43.38970,
,,,1136.85822, -41.78970,
,,,1139.32429, -46.98970,
,,,1141.79036, -46.98970,
,,,1144.25643, -46.98970,
,,,1146.72250, -46.98970,
,,,1149.18857, -46.98970,
,,,1151.65464, -46.98970,
,,,1154.12071, -46.98970,
,,,1156.58678, -46.98970,
,,,1159.05285, -46.98970,
,,,1161.51892, -46.98970,
,,,1163.98499, -45.78970,
,,,1166.45106, -46.98970,
,,,1168.91713, -45.78970,
,,,1171.38320, -45.78970,
,,,1173.84927, -45.78970,
,,,1176.31534, -46.98970,
,,,1178.78141, -46.98970,
,,,1181.24748, -46.98970,
,,,1183.71355, -46.98970,
,,,1186.17962, -45.78970,
,,,1188.64569, -45.78970,
,,,1191.11176, -46.98970,
,,,1193.57783, -45.78970,
,,,1196.04390, -45.78970,
,,,1198.50997, -45.78970,
,,,1200.97604, -46.98970,
,,,1203.44211, -46.98970,
,,,1205.90818, -45.78970,
,,,1208.37425, -45.78970,
,,,1210.84032, -45.78970,
,,,1213.30639, -46.98970,
,,,1215.77246, -45.78970,
,,,1218.23853, -46.98970,
,,,1220.70460, -46.98970,
,,,1223.17067, -46.98970,
,,,1225.63674, -45.78970,
,,,1228.10281, -46.98970,
,,,1230.56888, -45.78970,
,,,1233.03495, -43.78970,
,,,1235.50102, -46.98970,
,,,1237.96709, -46.98970,
,,,1240.43316, -46.98970,
,,,1242.89923, -46.98970,
,,,1245.36530, -46.98970,
,,,1247.83137, -45.78970,
,,,1250.29744, -39.78970,
,,,1252.76351, -46.98970,
,,,1255.22958, -46.98970,
,,,1257.69565, -46.98970,
,,,1260.16172, -46.98970,
,,,1262.62779, -45.78970,
,,,1265.09386, -43.38970,
,,,1267.55993, -46.98970,
,,,1270.02600, -46.98970,
,,,1272.49207, -46.98970,
,,,1274.95814, -46.98970,
,,,1277.42421, -46.98970,
,,,1279.89028, -45.78970,
,,,1282.35635, -45.78970,
,,,1284.82242, -46.98970,
,,,1287.28849, -46.98970,
,,,1289.75456, -46.98970,
,,,1292.22063, -46.98970,
,,,1294.68670, -46.98970,
,,,1297.15277, -45.78970,
,,,1299.61884, -46.98970,
,,,1302.08491, -46.98970,
,,,1304.55098, -43.78970,
,,,1307.01705, -46.98970,
,,,1309.48312, -46.98970,
,,,1311.94919, -46.98970,
,,,1314.41526, -42.98970,
,,,1316.88133, -46.98970,
,,,1319.34740, -46.98970,
,,,1321.81347, -46.98970,
,,,1324.27954, -46.98970,
,,,1326.74561, -45.78970,
,,,1329.21168, -46.98970,
,,,1331.67775, -46.98970,
,,,1334.14382, -46.98970,
,,,1336.60989, -46.98970,
,,,1339.07596, -46.98970,
,,,1341.54203, -46.98970,
,,,1344.00810, -45.78970,
,,,1346.47417, -45.78970,
,,,1348.94024, -46.98970,
,,,1351.40631, -46.98970,
,,,1353.87238, -46.98970,
,,,1356.33845, -46.98970,
,,,1358.80452, -46.98970,
,,,1361.27059, -45.78970,
,,,1363.73666, -46.98970,
,,,1366.20273, -46.98970,
,,,1368.66880, -46.98970,
,,,1371.13487, -46.98970,
,,,1373.60094, -46.98970,
,,,1376.06701, -45.78970,
,,,1378.53308, -46.98970,
,,,1380.99915, -46.98970,
,,,1383.46522, -46.98970,
,,,1385.93129, -46.98970,
,,,1388.39736, -46.98970,
,,,1390.86343, -46.98970,
,,,1393.32950, -46.98970,
,,,1395.79557, -46.98970,
,,,1398.26164, -42.98970,
,,,1400.72771, -46.98970,
,,,1403.19378, -46.98970,
,,,1405.65985, -43.38970,
,,,1408.12592, -42.98970,
,,,1410.59199, -46.98970,
,,,1413.05806, -46.98970,
,,,1415.52413, -46.98970,
,,,1417.99020, -46.98970,
,,,1420.45627, -45.78970,
,,,1422.92234, -46.98970,
,,,1425.38841, -46.98970,
,,,1427.85448, -42.98970,
,,,1430.32055, -45.78970,
,,,1432.78662, -46.98970,
,,,1435.25269, -46.98970,
,,,1437.71876, -46.98970,
,,,1440.18483, -43.78970,
,,,1442.65090, -46.98970,
,,,1445.11697, -46.98970,
,,,1447.58304, -45.78970,
,,,1450.04911, -45.78970,
,,,1452.51518, -46.98970,
,,,1454.98125, -46.98970,
,,,1457.44732, -46.98970,
,,,1459.91339, -46.98970,
,,,1462.37946, -46.98970,
,,,1464.84553, -46.98970,
,,,1467.31160, -46.98970,
,,,1469.77767, -45.78970,
,,,1472.24374, -41.78970,
,,,1474.70981, -42.98970,
,,,1477.17588, -46.98970,
,,,1479.64195, -46.98970,
,,,1482.10802, -46.98970,
,,,1484.57409, -46.98970,
,,,1487.04016, -46.98970,
,,,1489.50623, -46.98970,
,,,1491.97230, -46.98970,
,,,1494.43837, -46.98970,
,,,1496.90444, -45.78970,
,,,1499.37051, -46.98970,
,,,1501.83658, -45.78970,
,,,1504.30265, -46.98970,
,,,1506.76872, -40.98970,
,,,1509.23479, -42.98970,
,,,1511.70086, -45.78970,
,,,1514.16693, -46.98970,
,,,1516.63300, -46.98970,
,,,1519.09907, -46.98970,
,,,1521.56514, -45.78970,
,,,1524.03121, -46.98970,
,,,1526.49728, -45.78970,
,,,1528.96335, -46.98970,
,,,1531.42942, -38.98970,
,,,1533.89549, -38.98970,
,,,1536.36156, -42.98970,
,,,1538.82763, -46.98970,
,,,1541.29370, -46.98970,
,,,1543.75977, -46.98970,
,,,1546.22584, -46.98970,
,,,1548.69191, -46.98970,
,,,1551.15798, -46.98970,
,,,1553.62405, -45.78970,
,,,1556.09012, -46.98970,
,,,1558.55619, -40.98970,
,,,1561.02226, -40.58970,
,,,1563.48833, -46.98970,
,,,1565.95440, -46.98970,
,,,1568.42047, -46.98970,
,,,1570.88654, -46.98970,
,,,1573.35261, -46.98970,
,,,1575.81868, -46.98970,
,,,1578.28475, -46.98970,
,,,1580.75082, -46.98970,
,,,1583.21689, -41.78970,
,,,1585.68296, -37.78970,
,,,1588.14903, -38.18970,
,,,1590.61510, -43.38970,
,,,1593.08117, -45.78970,
,,,1595.54724, -41.78970,
,,,1598.01331, -43.78970,
,,,1600.47938, -46.98970,
,,,1602.94545, -46.98970,
,,,1605.41152, -46.98970,
,,,1607.87759, -46.98970,
,,,1610.34366, -37.78970,
,,,1612.80973, -24.98970,
,,,1615.27580, -23.78970,
,,,1617.74187, -36.58970,
,,,1620.20794, -45.78970,
,,,1622.67401, -46.98970,
,,,1625.14008, -46.98970,
,,,1627.60615, -46.98970,
,,,1630.07222, -46.98970,
,,,1632.53829, -40.58970,
,,,1635.00436, -42.98970,
,,,1637.47043, -38.98970,
,,,1639.93650, -20.58970,
,,,1642.40257, -18.98970,
,,,1644.86864, -29.38970,
,,,1647.33471, -46.98970,
,,,1649.80078, -46.98970,
,,,1652.26685, -43.78970,
,,,1654.73292, -46.98970,
,,,1657.19899, -46.98970,
,,,1659.66506, -46.98970,
,,,1662.13113, -46.98970,
,,,1664.59720, -37.78970,
,,,1667.06327, -19.78970,
,,,1669.52934, -17.38970,
,,,1671.99541, -27.78970,
,,,1674.46148, -41.78970,
,,,1676.92755, -46.98970,
,,,1679.39362, -46.98970,
,,,1681.85969, -46.98970,
,,,1684.32576, -45.78970,
,,,1686.79183, -45.78970,
,,,1689.25790, -46.98970,
,,,1691.72397, -41.78970,
,,,1694.19004, -23.38970,
,,,1696.65611, -20.58970,
,,,1699.12218, -30.18970,
,,,1701.58825, -43.78970,
,,,1704.05432, -46.98970,
,,,1706.52039, -46.98970,
,,,1708.98646, -45.78970,
,,,1711.45253, -45.78970,
,,,1713.91860, -46.98970,
,,,1716.38467, -45.78970,
,,,1718.85074, -46.98970,
,,,1721.31681, -45.78970,
,,,1723.78288, -36.98970,
,,,1726.24895, -45.78970,
,,,1728.71502, -46.98970,
,,,1731.18109, -46.98970,
,,,1733.64716, -45.78970,
,,,1736.11323, -46.98970,
,,,1738.57930, -42.98970,
,,,1741.04537, -42.98970,
,,,1743.51144, -46.98970,
,,,1745.97751, -46.98970,
,,,1748.44358, -26.98970,
,,,1750.90965, -22.98970,
,,,1753.37572, -30.58970,
,,,1755.84179, -46.98970,
,,,1758.30786, -46.98970,
,,,1760.77393, -46.98970,
,,,1763.24000, -45.78970,
,,,1765.70607, -46.98970,
,,,1768.17214, -46.98970,
,,,1770.63821, -43.38970,
,,,1773.10428, -45.78970,
,,,1775.57035, -27.38970,
,,,1778.03642, -22.98970,
,,,1780.50249, -29.78970,
,,,1782.96856, -45.78970,
,,,1785.43463, -46.98970,
,,,1787.90070, -46.98970,
,,,1790.36677, -46.98970,
,,,1792.83284, -46.98970,
,,,1795.29891, -46.98970,
,,,1797.76498, -46.98970,
,,,1800.23105, -46.98970,
,,,1802.69712, -41.78970,
,,,1805.16319, -33.78970,
,,,1807.62926, -36.98970,
,,,1810.09533, -46.98970,
,,,1812.56140, -46.98970,
,,,1815.02747, -46.98970,
,,,1817.49354, -46.98970,
,,,1819.95961, -46.98970,
,,,1822.42568, -46.98970,
,,,1824.89175, -46.98970,
,,,1827.35782, -43.38970,
,,,1829.82389, -20.18970,
,,,1832.28996, -13.38970,
,,,1834.75603, -18.58970,
,,,1837.22210, -46.98970,
,,,1839.68817, -46.98970,
,,,1842.15424, -42.98970,
,,,1844.62031, -46.98970,
,,,1847.08638, -46.98970,
,,,1849.55245, -46.98970,
,,,1852.01852, -45.78970,
,,,1854.48459, -41.78970,
,,,1856.95066, -20.98970,
,,,1859.41673, -13.38970,
,,,1861.88280, -18.18970,
,,,1864.34887, -42.98970,
,,,1866.81494, -45.78970,
,,,1869.28101, -46.98970,
,,,1871.74708, -46.98970,
,,,1874.21315, -45.78970,
,,,1876.67922, -46.98970,
,,,1879.14529, -46.98970,
,,,1881.61136, -46.98970,
,,,1884.07743, -39.78970,
,,,1886.54350, -30.18970,
,,,1889.00957, -32.98970,
